<?xml version="1.0" standalone="no"?>
<!DOCTYPE svg PUBLIC "-//W3C//DTD SVG 1.1//EN" "http://www.w3.org/Graphics/SVG/1.1/DTD/svg11.dtd">
<svg xmlns="http://www.w3.org/2000/svg">
<metadata>Generated by Fontastic.me</metadata>
<defs>
<font id="untitled-font-4" horiz-adv-x="512">
<font-face font-family="untitled-font-4" units-per-em="512" ascent="480" descent="-32"/>
<missing-glyph horiz-adv-x="512" />

<glyph glyph-name="list" unicode="&#97;" d="M0 91c0 121 0 242 0 363 1 1 1 2 1 4 5 12 17 22 30 22 6 0 11 0 17-1 38-3 75-6 113-11 31-3 62-9 93-19 2-1 5 0 6 0 14 3 27 8 41 10 32 6 66 11 99 16 26 3 52 4 79 5 16 1 28-9 32-24 0-1 1-2 1-2 0-83 0-165 0-249-1 2-3 2-4 4-11 11-23 23-34 34-3 2-4 4-2 7 7 17 10 35 7 53-9 48-50 82-98 80-47-1-86-37-92-84-9-67 55-122 121-104 5 2 12 6 16 5 5-2 9-8 13-12 24-25 49-49 73-73 0-9 0-16 0-25 0 0-1-1-1-2-4-17-15-25-32-25-7 0-12 0-19-1-34-2-68-4-102-8-29-4-58-9-87-19-11-4-21-3-32 1-11 4-22 7-33 9-58 12-116 18-175 20-14-1-25 7-29 20-1 2-1 4-2 6z m64 165c54-4 107-11 159-23 0 11 0 22 0 33-52 11-105 18-159 22 0-11 0-21 0-32z m0 96c54-4 107-11 159-23 0 11 0 22 0 33-52 11-105 18-159 22 0-11 0-21 0-32z m0-191c27-4 54-6 81-9 26-4 52-9 79-14 0 10 0 21 0 32-29 8-145 24-159 21-1-10-1-20-1-30z m256 127c0 35 29 64 63 64 36 0 65-28 65-64 0-35-29-65-64-65-35 1-64 29-64 65z"/>
<glyph glyph-name="news" unicode="&#98;" d="M0 109c0 118 0 236 0 355 149 0 299 0 448 0 0-21 0-43 0-64 21 0 43 0 63 0 0-1 0-2 0-3 0-95 0-190 0-285 0-7-1-16-3-23-4-17-13-30-29-37-4-2-9-3-13-4-136 0-273 0-409 0-1 0-2 1-2 1-8 0-15 2-22 6-16 7-25 21-30 38-1 5-2 10-3 16z m426-29c-1 3-2 5-4 7-4 8-6 18-6 27 0 105 0 209 0 314 0 1 0 2 0 3-128 0-256 0-383 0 0-1 0-2 0-3 0-105 0-209 0-315 0-2 0-5 0-7 2-10 7-18 16-22 5-3 11-4 18-4 119 0 238 0 357 0 0 0 1 0 2 0z m-362 64c0 53 0 107 0 160 48 0 96 0 144 0 0-53 0-107 0-160-48 0-96 0-144 0z m0 224c106 0 213 0 320 0 0-11 0-21 0-32-107 0-214 0-320 0 0 11 0 21 0 32z m176-96c0 11 0 21 0 32 48 0 96 0 144 0 0-11 0-21 0-32-48 0-96 0-144 0z m144-32c0-11 0-21 0-32-48 0-96 0-144 0 0 11 0 21 0 32 48 0 96 0 144 0z m-32-64c0-11 0-21 0-32-38 0-75 0-112 0 0 11 0 21 0 32 37 0 74 0 112 0z"/>
<glyph glyph-name="referral" unicode="&#99;" d="M512 18c-1 0-2 0-3 0-95 0-191 0-286 0-2 0-4 1-5 2-10 8-20 15-30 23-17 14-28 32-34 53-3 9-5 19-6 29 25 0 50 0 74 0 0 1 0 1 1 1-8 8-16 17-24 25-8 8-16 15-24 24 5 3 9 7 13 10 10 7 19 13 28 19 2 2 3 2 5 0 7-8 15-15 23-20 14-9 29-16 45-19 42-7 79 1 111 29 4 4 9 8 13 11 49-29 83-70 94-127 2-11 3-22 4-33 0-1 0-2 1-3 0-9 0-16 0-24z m-512 190c2 7 3 14 6 21 10 31 26 58 51 78 6 5 13 9 20 14 1 1 2 1 3 0 6-5 12-11 17-15 21-15 44-20 69-17 5 0 9 0 14 1 1-4 2-8 3-12 1-6 3-14 4-21 0-1 1-2 0-4 0 0 0-2-1-2-13-7-24-17-35-27-3-3-7-7-10-11-15 15-30 29-45 44 0 0-1-1-2-2-17-17-34-34-52-52-1-1-3-2-4-2-11 0-21 0-32 0-3 0-5 0-7 3 1 0 1 2 1 4z m433 99c2-59-49-119-120-118-62 0-115 55-115 117 0 64 55 118 118 117 69-1 117-57 117-116z m-371 94c0 45 34 85 77 91 32 6 61-4 84-28 9-10 15-22 20-35 0-1 1-1 1-2 1-5 0-6-4-8-37-18-57-50-65-89-1-5-1-12-2-18 0-1-1-2-2-2-9-2-18 0-27 0-39 3-71 36-79 69-2 7-2 14-3 22z m-52-260c27 26 53 51 80 76 26-25 53-50 79-75 0 0 0-1 0-1-15 0-30 0-45 0 0-4 0-8 0-11 1-17 4-34 10-49 9-25 24-44 45-60 0-1 1-1 2-2-3 1-5 1-8 1-3 1-5 2-7 2-22 7-42 15-61 30-24 18-38 42-46 71-1 5-3 10-4 16-1 2-1 2-3 2-12 0-23 0-36 1-1-1-3-1-6-1z"/>
<glyph glyph-name="toolkit" unicode="&#100;" d="M477 478c11-11 21-21 33-33-2-1-4-2-5-3-52-52-103-104-155-156-3-3-4-5-2-9 11-29 7-55-16-78-55-56-111-111-167-167-21-21-46-27-73-17-28 10-45 30-49 59-3 23 4 42 20 59 56 56 111 112 167 168 22 22 51 27 80 15 4-2 5 0 7 2 52 52 103 104 155 155 2 2 3 4 5 5z m-341 23c66 0 122-49 130-116 0-2 0-5 1-7 3-20-6-33-22-41-15-7-27-16-38-28-17-19-35-36-53-54-15-14-32-20-53-14-62 17-103 74-99 138 0 0 0 0 0 1 0 5 1 11 7 13 5 2 10-1 14-5 14-14 29-28 43-43 13-13 29-17 47-13 7 3 13 4 19 5 17 5 28 16 33 33 2 7 4 14 6 21 5 17 0 33-12 45-14 14-28 28-42 42-4 5-9 9-6 16 3 7 9 7 15 7 3 0 6 0 10 0z m355-417c-1-42-37-75-78-71-14 1-25 6-35 16-26 25-50 50-75 75-11 10-11 24 0 35 14 15 29 29 43 43 6 7 12 15 18 23 0 1 1 3 2 3 6 9 14 10 22 2 11-10 22-21 33-33 18-17 35-35 53-52 12-11 17-25 17-41z"/>
</font></defs></svg>
